,ln,dob,gn,fn,Labels
0,SMITH,01/03/68,F,WILLIAM,2
1,ROTHMEYER,01/03/68,F,WILLIAM,4
2,ASBY,01/03/68,F,WILLIAM,3
3,SALTER,01/03/68,F,WILLIAM,1
4,SALTER,01/03/68,F,WILLIAM,1
5,BLAND,21/02/62,F,WILLIAM,8
6,BLAND,21/02/62,F,WILLIAM,8
7,BLAND,21/02/62,F,WILLIAM,8
8,SHAFFER,21/02/62,F,WILLIAM,7
9,SHAFFER,21/02/62,F,WILLIAM,7
10,BLAND III,21/02/62,F,WILLIAM,9
11,BLAND,21/02/62,F,BILL,10
12,BLAND,21/02/62,F,WILLIAM,8
13,BLAND,21/02/62,F,WILLIAM,8
14,BLAND,08/06/54,F,WILLIAM,11
15,BLAND,08/06/54,F,WILLIAM,11
16,BLAND,25/10/53,F,WILLIAM,12
17,BLAND,25/10/53,F,WILLIAM,12
18,SHAFFER,25/10/53,F,WILLIAM,13
19,DUNCAN,25/10/53,F,THOMAS,14
20,CARLSON,25/10/53,F,ROY,15
21,CARLSON,25/10/53,F,RON,15
22,DUNCAN,25/10/53,F,ROY,16
23,MICHAELSON,25/10/53,M,ROY,2200
24,MICHAELSON,25/10/53,M,ROY,2200
25,MICHAELSON,25/10/53,M,ROY,2200
26,MICHAELSON,25/10/53,M,ROY,2200
27,MICHAELSON,01/05/51,M,ROY,2300
28,MICHAELSON,17/06/48,M,ROY,2400
29,MICHAELSON,17/06/48,M,ROY,2400
30,MICHAELSON,09/04/47,M,ROY,2700
31,MICHAELSON,09/04/47,M,ROBERT,2900
32,MICHAELSON,09/04/47,M,BOB,2800
33,MUSTAPHA,11/03/47,M,OWEN,2500
34,MUSTAPHA,11/03/47,M,OWAN,2600
35,HOUGHTON,31/01/46,M,LAWRENCE,3500
36,HOUGHTON,31/01/46,M,LAWRENCE,3500
37,HOUGHTON,31/01/46,M,LAWRENCE,3500
38,LIND,31/01/46,M,LAWRENCE,3700
39,LIND,31/01/46,M,LAWRENCE,3700
40,LIND,31/01/46,M,KENNETH,3600
41,LIND,31/01/46,M,KENNETH,3600
42,LIND,20/01/46,M,JOHN,3800
43,CAIN,20/01/46,M,JOHN,3900
44,CLARK,09/06/45,M,JOHN,3200
45,CLARK,09/02/45,M,RONALD,3400
46,CLARK,09/02/45,M,DONALD,3300
47,CLARK,16/12/44,M,JOHN,3100
48,CLARK,16/12/44,M,JOHN,3100
49,CLARK,16/12/44,M,JOHN,3100
50,MICHAELSON,16/12/44,M,JOHN,3000
51,MICHAELSON,16/12/44,M,JOHN,3000
52,MICHAELSON,16/12/44,M,JOHN,3000
53,MICHAELSON,24/04/40,M,JOHN,1600
54,MICHAELSON,24/04/40,M,JOHN,1600
55,MICHAELSON,24/06/39,M,JOHN,1700
56,MICHAELSON,24/06/39,M,JOHN,1700
57,MICHAELSON,24/06/39,M,JOHN,1700
58,MICHAELSON,24/06/39,M,JAMES,1800
59,MICHAELSON,24/06/39,M,JAMES,1800
60,MICHAELSON,24/06/39,M,JACK,1900
61,MICHAELSON,09/06/39,M,JACK,2100
62,LARSON,09/06/39,M,HAROLD,2000
63,LARSON,09/06/39,M,HAROLD,2000
64,MUSTAPHA,07/10/37,M,HAROLD,800
65,HOUGHTON,07/10/37,M,HAROLD,900
66,MELVIN,07/10/37,M,HAROLD,1300
67,MELVIN,07/10/37,M,HAROLD,1300
68,MELVIN,07/10/37,M,HAROLD,1300
69,MELVIN,07/10/37,M,HAROLD,1300
70,MELVIN,07/10/37,M,HAROLD,1300
71,MELVIN,07/10/37,M,HAROLD,1300
72,MELVIN,07/10/37,M,HAROLD,1300
73,MELVIN,07/10/37,M,HAROLD,1300
74,MELVIN,07/10/37,M,HAROLD,1300
75,CHAVAS,07/10/37,M,HAROLD,400
76,CHAVAS,07/10/37,M,HAROLD,400
77,CHAVAS,07/10/37,M,HAROLD,400
78,CHAVAS,07/10/37,M,HAROLD,400
79,MICHAELSON,07/10/37,M,HAROLD,700
80,MICHAELSON,07/10/37,M,HAROLD,700
81,SMITH,07/10/37,M,HAROLD,1300
82,CHAVAS,07/10/37,M,HAROLD,400
83,CHAVAS,07/10/37,M,HAROLD,400
84,FAGEN,07/10/37,M,HAROLD,500
85,FAGEN,07/10/37,M,HAROLD,500
86,FAGEN,07/10/37,M,GEORGE,600
87,GRIFFIN,07/10/37,M,DARH,1000
88,GRIFFIN,10/07/37,M,DARL,1500
89,GRIFFIN,07/05/37,M,DARL,1100
90,GRIFFIN,07/05/37,M,CLIFFORD,1200
91,GRIFFIN,07/05/37,M,CLIFFORD,1200
92,GRIFFIN,07/05/37,M,CLIFFORD,1200
93,GRIFFIN,07/05/37,M,CLARENCE,1400
94,HANNA,24/11/34,M,ADDISON,100
95,HANNA,24/11/34,M,ADDISON JOHN,200
96,HANNA,24/11/34,M,ADDISON,100
97,HANNA,24/11/34,M,ADDISON,100
98,HANNA,24/11/34,M,ADDISON,100
99,GALETICH,15/10/32,M,ADDISON,300
100,FUNARO JONES,06/12/37,F,HARRIET,6
101,FUNARO,06/12/37,F,HARRIET,5
102,FUNARO,06/12/37,F,HARRIET,5
